%YAML 1.1
%TAG !u! tag:unity3d.com,2011:
--- !u!74 &7400000
AnimationClip:
  m_ObjectHideFlags: 0
  m_CorrespondingSourceObject: {fileID: 0}
  m_PrefabInstance: {fileID: 0}
  m_PrefabAsset: {fileID: 0}
  m_Name: Idle_Pj
  serializedVersion: 6
  m_Legacy: 0
  m_Compressed: 0
  m_UseHighQualityCurve: 1
  m_RotationCurves: []
  m_CompressedRotationCurves: []
  m_EulerCurves: []
  m_PositionCurves: []
  m_ScaleCurves: []
  m_FloatCurves: []
  m_PPtrCurves:
  - curve:
    - time: 0
      value: {fileID: 21300000, guid: b6b357ba9069e60438b7848527d135c9, type: 3}
    - time: 0.083333336
      value: {fileID: 21300000, guid: 30ab0dc50b5106b4694b50cd05625941, type: 3}
    - time: 0.16666667
      value: {fileID: 21300000, guid: f2e8a3a05fa63ea49b3a16e08bad2676, type: 3}
    - time: 0.25
      value: {fileID: 21300000, guid: 4cac90ccc366c334184d7ffddf0a3fe1, type: 3}
    - time: 0.33333334
      value: {fileID: 21300000, guid: 29ee5ca8267d27c4781964630c8cf2b6, type: 3}
    - time: 0.41666666
      value: {fileID: 21300000, guid: 0381602dbeb211c4aaf033725eee872a, type: 3}
    - time: 0.5
      value: {fileID: 21300000, guid: a68e2b512fa203c46a173dc4df959304, type: 3}
    - time: 0.5833333
      value: {fileID: 21300000, guid: 0a55bf90618d1434eab583be229a2a41, type: 3}
    - time: 0.6666667
      value: {fileID: 21300000, guid: 408d29eeee1706a4d8aeed6282ad91bd, type: 3}
    - time: 0.75
      value: {fileID: 21300000, guid: 75c027cb3128d3b418ec585814992042, type: 3}
    attribute: m_Sprite
    path: 
    classID: 212
    script: {fileID: 0}
  m_SampleRate: 12
  m_WrapMode: 0
  m_Bounds:
    m_Center: {x: 0, y: 0, z: 0}
    m_Extent: {x: 0, y: 0, z: 0}
  m_ClipBindingConstant:
    genericBindings:
    - serializedVersion: 2
      path: 0
      attribute: 0
      script: {fileID: 0}
      typeID: 212
      customType: 23
      isPPtrCurve: 1
    pptrCurveMapping:
    - {fileID: 21300000, guid: b6b357ba9069e60438b7848527d135c9, type: 3}
    - {fileID: 21300000, guid: 30ab0dc50b5106b4694b50cd05625941, type: 3}
    - {fileID: 21300000, guid: f2e8a3a05fa63ea49b3a16e08bad2676, type: 3}
    - {fileID: 21300000, guid: 4cac90ccc366c334184d7ffddf0a3fe1, type: 3}
    - {fileID: 21300000, guid: 29ee5ca8267d27c4781964630c8cf2b6, type: 3}
    - {fileID: 21300000, guid: 0381602dbeb211c4aaf033725eee872a, type: 3}
    - {fileID: 21300000, guid: a68e2b512fa203c46a173dc4df959304, type: 3}
    - {fileID: 21300000, guid: 0a55bf90618d1434eab583be229a2a41, type: 3}
    - {fileID: 21300000, guid: 408d29eeee1706a4d8aeed6282ad91bd, type: 3}
    - {fileID: 21300000, guid: 75c027cb3128d3b418ec585814992042, type: 3}
  m_AnimationClipSettings:
    serializedVersion: 2
    m_AdditiveReferencePoseClip: {fileID: 0}
    m_AdditiveReferencePoseTime: 0
    m_StartTime: 0
    m_StopTime: 0.8333333
    m_OrientationOffsetY: 0
    m_Level: 0
    m_CycleOffset: 0
    m_HasAdditiveReferencePose: 0
    m_LoopTime: 1
    m_LoopBlend: 0
    m_LoopBlendOrientation: 0
    m_LoopBlendPositionY: 0
    m_LoopBlendPositionXZ: 0
    m_KeepOriginalOrientation: 0
    m_KeepOriginalPositionY: 1
    m_KeepOriginalPositionXZ: 0
    m_HeightFromFeet: 0
    m_Mirror: 0
  m_EditorCurves: []
  m_EulerEditorCurves: []
  m_HasGenericRootTransform: 0
  m_HasMotionFloatCurves: 0
  m_Events: []
